[
    {
        "id": "id_2f1",
        "name": "Ashish Prakash Badgujar",
        "email": "ashishbadgujar124@gmail.com",
        "message": "jhdsbjhs"
    },
    {
        "id": "id_2f1",
        "name": "Ashish Prakash Badgujar",
        "email": "ashishbadgujar124@gmail.com",
        "message": "jhdsbjhs"
    },
    {
        "id": "id_0e2",
        "name": "Ashish Prakash Badgujar",
        "email": "ashishbadgujar124@gmail.com",
        "message": "this is my from express.js"
    }
]